Sensor,a,b,a_uncertainty,b_uncertainty,delta_a,delta_b
sensor-pkg,0.006704393201183264,0.9397866170806367,0.0006527915231159949,0.0012128778034302752,-0.011391458753608617,0.01950263518664519
sensor-pkg-1,0.01809585195479188,0.9202839818939915,0.005885847118576498,0.006116286913137672,,
